   1               		.file	"backlight.c"
   2               	__SP_H__ = 0x3e
   3               	__SP_L__ = 0x3d
   4               	__SREG__ = 0x3f
   5               	__tmp_reg__ = 0
   6               	__zero_reg__ = 1
   7               		.text
   8               	.Ltext0:
   9               		.cfi_sections	.debug_frame
  10               		.section	.text.backlight_init,"ax",@progbits
  11               	.global	backlight_init
  13               	backlight_init:
  14               	.LFB0:
  15               		.file 1 "./tmk_core/common/backlight.c"
   1:./tmk_core/common/backlight.c **** /*
   2:./tmk_core/common/backlight.c **** Copyright 2013 Mathias Andersson <wraul@dbox.se>
   3:./tmk_core/common/backlight.c **** 
   4:./tmk_core/common/backlight.c **** This program is free software: you can redistribute it and/or modify
   5:./tmk_core/common/backlight.c **** it under the terms of the GNU General Public License as published by
   6:./tmk_core/common/backlight.c **** the Free Software Foundation, either version 2 of the License, or
   7:./tmk_core/common/backlight.c **** (at your option) any later version.
   8:./tmk_core/common/backlight.c **** 
   9:./tmk_core/common/backlight.c **** This program is distributed in the hope that it will be useful,
  10:./tmk_core/common/backlight.c **** but WITHOUT ANY WARRANTY; without even the implied warranty of
  11:./tmk_core/common/backlight.c **** MERCHANTABILITY or FITNESS FOR A PARTICULAR PURPOSE.  See the
  12:./tmk_core/common/backlight.c **** GNU General Public License for more details.
  13:./tmk_core/common/backlight.c **** 
  14:./tmk_core/common/backlight.c **** You should have received a copy of the GNU General Public License
  15:./tmk_core/common/backlight.c **** along with this program.  If not, see <http://www.gnu.org/licenses/>.
  16:./tmk_core/common/backlight.c **** */
  17:./tmk_core/common/backlight.c **** 
  18:./tmk_core/common/backlight.c **** #include "backlight.h"
  19:./tmk_core/common/backlight.c **** #include "eeconfig.h"
  20:./tmk_core/common/backlight.c **** #include "debug.h"
  21:./tmk_core/common/backlight.c **** 
  22:./tmk_core/common/backlight.c **** backlight_config_t backlight_config;
  23:./tmk_core/common/backlight.c **** 
  24:./tmk_core/common/backlight.c **** void backlight_init(void)
  25:./tmk_core/common/backlight.c **** {
  16               		.loc 1 25 0
  17               		.cfi_startproc
  18               	/* prologue: function */
  19               	/* frame size = 0 */
  20               	/* stack size = 0 */
  21               	.L__stack_usage = 0
  26:./tmk_core/common/backlight.c ****     /* check signature */
  27:./tmk_core/common/backlight.c ****     if (!eeconfig_is_enabled()) {
  22               		.loc 1 27 0
  23 0000 0E94 0000 		call eeconfig_is_enabled
  24               	.LVL0:
  25 0004 8111      		cpse r24,__zero_reg__
  26 0006 00C0      		rjmp .L2
  28:./tmk_core/common/backlight.c ****         eeconfig_init();
  27               		.loc 1 28 0
  28 0008 0E94 0000 		call eeconfig_init
  29               	.LVL1:
  30               	.L2:
  29:./tmk_core/common/backlight.c ****     }
  30:./tmk_core/common/backlight.c ****     backlight_config.raw = eeconfig_read_backlight();
  31               		.loc 1 30 0
  32 000c 0E94 0000 		call eeconfig_read_backlight
  33               	.LVL2:
  34 0010 8093 0000 		sts backlight_config,r24
  31:./tmk_core/common/backlight.c ****     backlight_set(backlight_config.enable ? backlight_config.level : 0);
  35               		.loc 1 31 0
  36 0014 80FF      		sbrs r24,0
  37 0016 00C0      		rjmp .L4
  38               		.loc 1 31 0 is_stmt 0 discriminator 1
  39 0018 8695      		lsr r24
  40               	.L3:
  41               		.loc 1 31 0 discriminator 4
  42 001a 0C94 0000 		jmp backlight_set
  43               	.LVL3:
  44               	.L4:
  45 001e 80E0      		ldi r24,0
  46 0020 00C0      		rjmp .L3
  47               		.cfi_endproc
  48               	.LFE0:
  50               		.section	.text.backlight_increase,"ax",@progbits
  51               	.global	backlight_increase
  53               	backlight_increase:
  54               	.LFB1:
  32:./tmk_core/common/backlight.c **** }
  33:./tmk_core/common/backlight.c **** 
  34:./tmk_core/common/backlight.c **** void backlight_increase(void)
  35:./tmk_core/common/backlight.c **** {
  55               		.loc 1 35 0 is_stmt 1
  56               		.cfi_startproc
  57               	/* prologue: function */
  58               	/* frame size = 0 */
  59               	/* stack size = 0 */
  60               	.L__stack_usage = 0
  36:./tmk_core/common/backlight.c ****     if(backlight_config.level < BACKLIGHT_LEVELS)
  61               		.loc 1 36 0
  62 0000 8091 0000 		lds r24,backlight_config
  63 0004 982F      		mov r25,r24
  64 0006 9695      		lsr r25
  65 0008 292F      		mov r18,r25
  66 000a 30E0      		ldi r19,0
  67 000c 2330      		cpi r18,3
  68 000e 3105      		cpc r19,__zero_reg__
  69 0010 04F4      		brge .L6
  37:./tmk_core/common/backlight.c ****     {
  38:./tmk_core/common/backlight.c ****         backlight_config.level++;
  70               		.loc 1 38 0
  71 0012 9F5F      		subi r25,lo8(-(1))
  72 0014 990F      		lsl r25
  73 0016 8170      		andi r24,lo8(1)
  74 0018 892B      		or r24,r25
  75 001a 8093 0000 		sts backlight_config,r24
  76               	.L6:
  39:./tmk_core/common/backlight.c ****     }
  40:./tmk_core/common/backlight.c ****     backlight_config.enable = 1;
  77               		.loc 1 40 0
  78 001e 8091 0000 		lds r24,backlight_config
  79 0022 8160      		ori r24,lo8(1<<0)
  80 0024 8093 0000 		sts backlight_config,r24
  41:./tmk_core/common/backlight.c ****     eeconfig_update_backlight(backlight_config.raw);
  81               		.loc 1 41 0
  82 0028 0E94 0000 		call eeconfig_update_backlight
  83               	.LVL4:
  42:./tmk_core/common/backlight.c ****     dprintf("backlight increase: %u\n", backlight_config.level);
  43:./tmk_core/common/backlight.c ****     backlight_set(backlight_config.level);
  84               		.loc 1 43 0
  85 002c 8091 0000 		lds r24,backlight_config
  86 0030 8695      		lsr r24
  87 0032 0C94 0000 		jmp backlight_set
  88               	.LVL5:
  89               		.cfi_endproc
  90               	.LFE1:
  92               		.section	.text.backlight_decrease,"ax",@progbits
  93               	.global	backlight_decrease
  95               	backlight_decrease:
  96               	.LFB2:
  44:./tmk_core/common/backlight.c **** }
  45:./tmk_core/common/backlight.c **** 
  46:./tmk_core/common/backlight.c **** void backlight_decrease(void)
  47:./tmk_core/common/backlight.c **** {
  97               		.loc 1 47 0
  98               		.cfi_startproc
  99               	/* prologue: function */
 100               	/* frame size = 0 */
 101               	/* stack size = 0 */
 102               	.L__stack_usage = 0
  48:./tmk_core/common/backlight.c ****     if(backlight_config.level > 0)
 103               		.loc 1 48 0
 104 0000 9091 0000 		lds r25,backlight_config
 105 0004 892F      		mov r24,r25
 106 0006 8695      		lsr r24
 107 0008 01F0      		breq .L8
  49:./tmk_core/common/backlight.c ****     {
  50:./tmk_core/common/backlight.c ****         backlight_config.level--;
 108               		.loc 1 50 0
 109 000a 8158      		subi r24,lo8(-(127))
 110 000c 880F      		lsl r24
 111 000e 9170      		andi r25,lo8(1)
 112 0010 892B      		or r24,r25
 113 0012 8093 0000 		sts backlight_config,r24
  51:./tmk_core/common/backlight.c ****         backlight_config.enable = !!backlight_config.level;
 114               		.loc 1 51 0
 115 0016 8E7F      		andi r24,lo8(-2)
 116 0018 91E0      		ldi r25,lo8(1)
 117 001a 01F4      		brne .L9
 118 001c 90E0      		ldi r25,0
 119               	.L9:
 120 001e 8091 0000 		lds r24,backlight_config
 121 0022 90FB      		bst r25,0
 122 0024 80F9      		bld r24,0
 123 0026 8093 0000 		sts backlight_config,r24
  52:./tmk_core/common/backlight.c ****         eeconfig_update_backlight(backlight_config.raw);
 124               		.loc 1 52 0
 125 002a 0E94 0000 		call eeconfig_update_backlight
 126               	.LVL6:
 127               	.L8:
  53:./tmk_core/common/backlight.c ****     }
  54:./tmk_core/common/backlight.c ****     dprintf("backlight decrease: %u\n", backlight_config.level);
  55:./tmk_core/common/backlight.c ****     backlight_set(backlight_config.level);
 128               		.loc 1 55 0
 129 002e 8091 0000 		lds r24,backlight_config
 130 0032 8695      		lsr r24
 131 0034 0C94 0000 		jmp backlight_set
 132               	.LVL7:
 133               		.cfi_endproc
 134               	.LFE2:
 136               		.section	.text.backlight_toggle,"ax",@progbits
 137               	.global	backlight_toggle
 139               	backlight_toggle:
 140               	.LFB3:
  56:./tmk_core/common/backlight.c **** }
  57:./tmk_core/common/backlight.c **** 
  58:./tmk_core/common/backlight.c **** void backlight_toggle(void)
  59:./tmk_core/common/backlight.c **** {
 141               		.loc 1 59 0
 142               		.cfi_startproc
 143               	/* prologue: function */
 144               	/* frame size = 0 */
 145               	/* stack size = 0 */
 146               	.L__stack_usage = 0
  60:./tmk_core/common/backlight.c ****     backlight_config.enable ^= 1;
 147               		.loc 1 60 0
 148 0000 8091 0000 		lds r24,backlight_config
 149 0004 982F      		mov r25,r24
 150 0006 9095      		com r25
 151 0008 90FB      		bst r25,0
 152 000a 80F9      		bld r24,0
 153 000c 8093 0000 		sts backlight_config,r24
  61:./tmk_core/common/backlight.c ****     eeconfig_update_backlight(backlight_config.raw);
 154               		.loc 1 61 0
 155 0010 0E94 0000 		call eeconfig_update_backlight
 156               	.LVL8:
  62:./tmk_core/common/backlight.c ****     dprintf("backlight toggle: %u\n", backlight_config.enable);
  63:./tmk_core/common/backlight.c ****     backlight_set(backlight_config.enable ? backlight_config.level : 0);
 157               		.loc 1 63 0
 158 0014 8091 0000 		lds r24,backlight_config
 159 0018 80FF      		sbrs r24,0
 160 001a 00C0      		rjmp .L15
 161               		.loc 1 63 0 is_stmt 0 discriminator 1
 162 001c 8695      		lsr r24
 163               	.L14:
 164               		.loc 1 63 0 discriminator 4
 165 001e 0C94 0000 		jmp backlight_set
 166               	.LVL9:
 167               	.L15:
 168 0022 80E0      		ldi r24,0
 169 0024 00C0      		rjmp .L14
 170               		.cfi_endproc
 171               	.LFE3:
 173               		.section	.text.backlight_step,"ax",@progbits
 174               	.global	backlight_step
 176               	backlight_step:
 177               	.LFB4:
  64:./tmk_core/common/backlight.c **** }
  65:./tmk_core/common/backlight.c **** 
  66:./tmk_core/common/backlight.c **** void backlight_step(void)
  67:./tmk_core/common/backlight.c **** {
 178               		.loc 1 67 0 is_stmt 1
 179               		.cfi_startproc
 180               	/* prologue: function */
 181               	/* frame size = 0 */
 182               	/* stack size = 0 */
 183               	.L__stack_usage = 0
  68:./tmk_core/common/backlight.c ****     backlight_config.level++;
 184               		.loc 1 68 0
 185 0000 9091 0000 		lds r25,backlight_config
 186 0004 892F      		mov r24,r25
 187 0006 8695      		lsr r24
 188 0008 8F5F      		subi r24,lo8(-(1))
 189 000a 8F77      		andi r24,lo8(127)
 190 000c 9170      		andi r25,lo8(1)
  69:./tmk_core/common/backlight.c ****     if(backlight_config.level > BACKLIGHT_LEVELS)
 191               		.loc 1 69 0
 192 000e 8430      		cpi r24,lo8(4)
 193 0010 00F4      		brsh .L17
  68:./tmk_core/common/backlight.c ****     backlight_config.level++;
 194               		.loc 1 68 0
 195 0012 880F      		lsl r24
 196 0014 892B      		or r24,r25
 197 0016 8093 0000 		sts backlight_config,r24
 198               	.L18:
  70:./tmk_core/common/backlight.c ****     {
  71:./tmk_core/common/backlight.c ****         backlight_config.level = 0;
  72:./tmk_core/common/backlight.c ****     }
  73:./tmk_core/common/backlight.c ****     backlight_config.enable = !!backlight_config.level;
 199               		.loc 1 73 0
 200 001a 8091 0000 		lds r24,backlight_config
 201 001e 8E7F      		andi r24,lo8(-2)
 202 0020 91E0      		ldi r25,lo8(1)
 203 0022 01F4      		brne .L19
 204 0024 90E0      		ldi r25,0
 205               	.L19:
 206 0026 8091 0000 		lds r24,backlight_config
 207 002a 90FB      		bst r25,0
 208 002c 80F9      		bld r24,0
 209 002e 8093 0000 		sts backlight_config,r24
  74:./tmk_core/common/backlight.c ****     eeconfig_update_backlight(backlight_config.raw);
 210               		.loc 1 74 0
 211 0032 0E94 0000 		call eeconfig_update_backlight
 212               	.LVL10:
  75:./tmk_core/common/backlight.c ****     dprintf("backlight step: %u\n", backlight_config.level);
  76:./tmk_core/common/backlight.c ****     backlight_set(backlight_config.level);
 213               		.loc 1 76 0
 214 0036 8091 0000 		lds r24,backlight_config
 215 003a 8695      		lsr r24
 216 003c 0C94 0000 		jmp backlight_set
 217               	.LVL11:
 218               	.L17:
  71:./tmk_core/common/backlight.c ****     }
 219               		.loc 1 71 0
 220 0040 9093 0000 		sts backlight_config,r25
 221 0044 00C0      		rjmp .L18
 222               		.cfi_endproc
 223               	.LFE4:
 225               		.section	.text.backlight_level,"ax",@progbits
 226               	.global	backlight_level
 228               	backlight_level:
 229               	.LFB5:
  77:./tmk_core/common/backlight.c **** }
  78:./tmk_core/common/backlight.c **** 
  79:./tmk_core/common/backlight.c **** void backlight_level(uint8_t level)
  80:./tmk_core/common/backlight.c **** {
 230               		.loc 1 80 0
 231               		.cfi_startproc
 232               	.LVL12:
 233               	/* prologue: function */
 234               	/* frame size = 0 */
 235               	/* stack size = 0 */
 236               	.L__stack_usage = 0
  81:./tmk_core/common/backlight.c ****     backlight_config.level ^= level;
 237               		.loc 1 81 0
 238 0000 9091 0000 		lds r25,backlight_config
 239 0004 292F      		mov r18,r25
 240 0006 2695      		lsr r18
 241 0008 8227      		eor r24,r18
 242               	.LVL13:
 243 000a 880F      		lsl r24
 244 000c 9170      		andi r25,lo8(1)
 245 000e 982B      		or r25,r24
 246 0010 9093 0000 		sts backlight_config,r25
  82:./tmk_core/common/backlight.c ****     backlight_config.enable = !!backlight_config.level;
 247               		.loc 1 82 0
 248 0014 9E7F      		andi r25,lo8(-2)
 249 0016 21E0      		ldi r18,lo8(1)
 250 0018 01F4      		brne .L21
 251 001a 20E0      		ldi r18,0
 252               	.L21:
 253 001c 8091 0000 		lds r24,backlight_config
 254 0020 20FB      		bst r18,0
 255 0022 80F9      		bld r24,0
 256 0024 8093 0000 		sts backlight_config,r24
  83:./tmk_core/common/backlight.c ****     eeconfig_update_backlight(backlight_config.raw);
 257               		.loc 1 83 0
 258 0028 0E94 0000 		call eeconfig_update_backlight
 259               	.LVL14:
  84:./tmk_core/common/backlight.c ****     backlight_set(backlight_config.level);
 260               		.loc 1 84 0
 261 002c 8091 0000 		lds r24,backlight_config
 262 0030 8695      		lsr r24
 263 0032 0C94 0000 		jmp backlight_set
 264               	.LVL15:
 265               		.cfi_endproc
 266               	.LFE5:
 268               		.section	.text.get_backlight_level,"ax",@progbits
 269               	.global	get_backlight_level
 271               	get_backlight_level:
 272               	.LFB6:
  85:./tmk_core/common/backlight.c **** }
  86:./tmk_core/common/backlight.c **** 
  87:./tmk_core/common/backlight.c **** uint8_t get_backlight_level(void)
  88:./tmk_core/common/backlight.c **** {
 273               		.loc 1 88 0
 274               		.cfi_startproc
 275               	/* prologue: function */
 276               	/* frame size = 0 */
 277               	/* stack size = 0 */
 278               	.L__stack_usage = 0
  89:./tmk_core/common/backlight.c ****     return backlight_config.level;
 279               		.loc 1 89 0
 280 0000 8091 0000 		lds r24,backlight_config
  90:./tmk_core/common/backlight.c **** }...
 281               		.loc 1 90 0
 282 0004 8695      		lsr r24
 283 0006 0895      		ret
 284               		.cfi_endproc
 285               	.LFE6:
 287               		.comm	backlight_config,1,1
 288               		.text
 289               	.Letext0:
 290               		.file 2 "./tmk_core/common/backlight.h"
 291               		.file 3 "/usr/avr/include/stdint.h"
 292               		.file 4 "./tmk_core/common/debug.h"
 293               		.file 5 "./tmk_core/common/eeconfig.h"
DEFINED SYMBOLS
                            *ABS*:0000000000000000 backlight.c
     /tmp/cc2KVMRq.s:2      *ABS*:000000000000003e __SP_H__
     /tmp/cc2KVMRq.s:3      *ABS*:000000000000003d __SP_L__
     /tmp/cc2KVMRq.s:4      *ABS*:000000000000003f __SREG__
     /tmp/cc2KVMRq.s:5      *ABS*:0000000000000000 __tmp_reg__
     /tmp/cc2KVMRq.s:6      *ABS*:0000000000000001 __zero_reg__
     /tmp/cc2KVMRq.s:13     .text.backlight_init:0000000000000000 backlight_init
                            *COM*:0000000000000001 backlight_config
     /tmp/cc2KVMRq.s:53     .text.backlight_increase:0000000000000000 backlight_increase
     /tmp/cc2KVMRq.s:95     .text.backlight_decrease:0000000000000000 backlight_decrease
     /tmp/cc2KVMRq.s:139    .text.backlight_toggle:0000000000000000 backlight_toggle
     /tmp/cc2KVMRq.s:176    .text.backlight_step:0000000000000000 backlight_step
     /tmp/cc2KVMRq.s:228    .text.backlight_level:0000000000000000 backlight_level
     /tmp/cc2KVMRq.s:271    .text.get_backlight_level:0000000000000000 get_backlight_level

UNDEFINED SYMBOLS
eeconfig_is_enabled
eeconfig_init
eeconfig_read_backlight
backlight_set
eeconfig_update_backlight
__do_clear_bss
